// Vitest Snapshot v1, https://vitest.dev/guide/snapshot.html

exports[`Oracle view > Should create idle > Initial 1`] = `
<div
  class="app-oracle-container"
>
  <div
    class="app-oracle-container"
    data-test-id="button"
  >
    <div
      class="w3-display-middle w3-center"
    >
      <span
        class="fa-6x"
        font-awesome-layers=""
      >
        
        <span
          data-test-id="microphone"
          font-awesome-icon=""
          icon="fas,microphone"
          transform="shrink-7"
        />
        <span
          class="app-invisible"
          data-test-id="invisibleSpinner"
          font-awesome-icon=""
          icon="fas,spinner"
        />
        <!--v-if-->
        
      </span>
      <div
        class="app-oracle-text"
      >
        Press and hold... and ask a Yes/No question
      </div>
    </div>
  </div>
  <!--v-if-->
</div>
`;

exports[`Oracle view > Should detect error > With error 1`] = `
<div
  class="app-oracle-container"
>
  <div
    class="app-oracle-container"
    data-test-id="button"
  >
    <div
      class="w3-display-middle w3-center"
    >
      <span
        class="fa-6x"
        font-awesome-layers=""
      >
        
        <span
          data-test-id="microphone"
          font-awesome-icon=""
          icon="fas,microphone"
          transform="shrink-7"
        />
        <span
          class="app-invisible"
          data-test-id="invisibleSpinner"
          font-awesome-icon=""
          icon="fas,spinner"
        />
        <!--v-if-->
        
      </span>
      <div
        class="app-oracle-text"
      >
        Press and hold... and ask a Yes/No question
      </div>
    </div>
  </div>
  <!--v-if-->
</div>
`;

exports[`Oracle view > Should load an answer if called slowly and back to idle (with mouse) > Idle 1`] = `
<div
  class="app-oracle-container"
>
  <div
    class="app-oracle-container"
    data-test-id="button"
  >
    <div
      class="w3-display-middle w3-center"
    >
      <span
        class="fa-6x"
        font-awesome-layers=""
      >
        
        <span
          data-test-id="microphone"
          font-awesome-icon=""
          icon="fas,microphone"
          transform="shrink-7"
        />
        <span
          class="app-invisible"
          data-test-id="invisibleSpinner"
          font-awesome-icon=""
          icon="fas,spinner"
        />
        <!--v-if-->
        
      </span>
      <div
        class="app-oracle-text"
      >
        Press and hold... and ask a Yes/No question
      </div>
    </div>
  </div>
  <!--v-if-->
</div>
`;

exports[`Oracle view > Should load an answer if called slowly and back to idle (with mouse) > Loaded 1`] = `
<div
  class="app-oracle-container"
>
  <!--v-if-->
  <div
    class="app-oracle-container app-oracle-answer-container"
    data-test-id="answerContainer"
    style="background-image: url(https://a/url.gif);"
  >
    <div
      class="app-oracle-answer w3-display-middle w3-center"
    >
      Yes
    </div>
    <div
      class="w3-display-bottomright w3-display-container"
    >
      <div
        class="w3-right w3-margin-right"
        data-test-id="answerAuthor"
      >
        qwerty
      </div>
      <div>
        <a
          data-test-id="answerGiphyUrl"
          href="https://giphy/url"
        >
          <img
            alt="Powered by Giphy"
            src="/caracol/web/src/assets/PoweredBy_200_Horizontal_Light-Backgrounds_With_Logo.gif"
          />
        </a>
      </div>
    </div>
  </div>
</div>
`;

exports[`Oracle view > Should load an answer if called slowly and back to idle (with touch) > Idle 1`] = `
<div
  class="app-oracle-container"
>
  <div
    class="app-oracle-container"
    data-test-id="button"
  >
    <div
      class="w3-display-middle w3-center"
    >
      <span
        class="fa-6x"
        font-awesome-layers=""
      >
        
        <span
          data-test-id="microphone"
          font-awesome-icon=""
          icon="fas,microphone"
          transform="shrink-7"
        />
        <span
          class="app-invisible"
          data-test-id="invisibleSpinner"
          font-awesome-icon=""
          icon="fas,spinner"
        />
        <!--v-if-->
        
      </span>
      <div
        class="app-oracle-text"
      >
        Press and hold... and ask a Yes/No question
      </div>
    </div>
  </div>
  <!--v-if-->
</div>
`;

exports[`Oracle view > Should load an answer if called slowly and back to idle (with touch) > Loaded 1`] = `
<div
  class="app-oracle-container"
>
  <!--v-if-->
  <div
    class="app-oracle-container app-oracle-answer-container"
    data-test-id="answerContainer"
    style="background-image: url(https://a/url.gif);"
  >
    <div
      class="app-oracle-answer w3-display-middle w3-center"
    >
      Yes
    </div>
    <div
      class="w3-display-bottomright w3-display-container"
    >
      <div
        class="w3-right w3-margin-right"
        data-test-id="answerAuthor"
      >
        qwerty
      </div>
      <div>
        <a
          data-test-id="answerGiphyUrl"
          href="https://giphy/url"
        >
          <img
            alt="Powered by Giphy"
            src="/caracol/web/src/assets/PoweredBy_200_Horizontal_Light-Backgrounds_With_Logo.gif"
          />
        </a>
      </div>
    </div>
  </div>
</div>
`;

exports[`Oracle view > Should load an answer if called slowly and back to idle (without author) > Idle 1`] = `
<div
  class="app-oracle-container"
>
  <div
    class="app-oracle-container"
    data-test-id="button"
  >
    <div
      class="w3-display-middle w3-center"
    >
      <span
        class="fa-6x"
        font-awesome-layers=""
      >
        
        <span
          data-test-id="microphone"
          font-awesome-icon=""
          icon="fas,microphone"
          transform="shrink-7"
        />
        <span
          class="app-invisible"
          data-test-id="invisibleSpinner"
          font-awesome-icon=""
          icon="fas,spinner"
        />
        <!--v-if-->
        
      </span>
      <div
        class="app-oracle-text"
      >
        Press and hold... and ask a Yes/No question
      </div>
    </div>
  </div>
  <!--v-if-->
</div>
`;

exports[`Oracle view > Should load an answer if called slowly and back to idle (without author) > Loaded 1`] = `
<div
  class="app-oracle-container"
>
  <!--v-if-->
  <div
    class="app-oracle-container app-oracle-answer-container"
    data-test-id="answerContainer"
    style="background-image: url(https://a/url.gif);"
  >
    <div
      class="app-oracle-answer w3-display-middle w3-center"
    >
      Yes
    </div>
    <div
      class="w3-display-bottomright w3-display-container"
    >
      <div
        class="w3-right w3-margin-right"
        data-test-id="answerAuthor"
      />
      <div>
        <a
          data-test-id="answerGiphyUrl"
          href="https://giphy/url"
        >
          <img
            alt="Powered by Giphy"
            src="/caracol/web/src/assets/PoweredBy_200_Horizontal_Light-Backgrounds_With_Logo.gif"
          />
        </a>
      </div>
    </div>
  </div>
</div>
`;
